…
- Trying to read some of the description field

```sql
SELECT description
FROM incidents
WHERE (created_at > '2024-08-01T00:00:00' AND created_at < '2024-09-30T49:49:27')
AND
(description LIKE '%[FIRING:%')

┌────────────────────────────────────────────────────────────────────────────────────────────────────────────────────────────────────────────────────────────────────────────────────────────────────┐
│                                                                                            description                                                                                             │
│                                                                                              varchar                                                                                               │
├────────────────────────────────────────────────────────────────────────────────────────────────────────────────────────────────────────────────────────────────────────────────────────────────────┤
│ [FIRING:1] vmaas-api-service-availability-dropped agena (oberon integration POST hpe-hcss monitoring/k8s /vmaas/api/v1alpha1/onboarding/edge/workflow us-west-2 critical)                          │
│ [FIRING:1] KubeQuotaFullyUsed agena-dev (true despina kube-rbac-proxy-main monitoring/k8s us-west-2 pods resource-quota-agena-dev warning)                                                         │
│ [FIRING:1] gtm-external-req-latency global-trade-manager (neso production GetAllEntityRecords hpe-hcss monitoring/k8s us-west-2 warning global-trade-db)                                           │
│ [FIRING:2] vmaas-api-service-availability-dropped agena (oberon integration hpe-hcss monitoring/k8s us-west-2 critical)                                                                            │
│ [FIRING:2] KubeContainerWaiting mlops (true oberon agena-rda-delegate integration hpe-hcss monitoring/k8s us-west-2 warning)                                                                       │
│ [FIRING:1] caas-osb-manager-request-error-percentage cassini (neso production manager.CaaSOsbManagerService hpe-hcss monitoring/k8s us-west-2 low)                                                 │
│ [FIRING:2] KubeContainerWaiting mlops (true oberon agena-rda-delegate integration hpe-hcss monitoring/k8s us-west-2 warning)                                                                       │
│ [FIRING:1] caas-osb-manager-request-error-percentage cassini (neso production manager.CaaSOsbManagerService hpe-hcss monitoring/k8s us-west-2 low)                                                 │
│ [FIRING:1] vmaas-api-service-availability-dropped agena (oberon integration POST hpe-hcss monitoring/k8s /vmaas/api/v1alpha1/onboarding/edge/workflow us-west-2 critical)                          │
│ [FIRING:1] NodeFilesystemSpaceFillingUp monitoring (true oberon kube-rbac-proxy /dev/root https integration ext4 ip-192-168-150-185.us-west-2.compute.internal node-exporter / hpe-hcss monitori.  │
│ [FIRING:1] vmaas-api-service-availability-dropped agena (oberon integration POST hpe-hcss monitoring/k8s /vmaas/api/v1alpha1/onboarding/edge/workflow us-west-2 critical)                          │
│ [FIRING:1] vmaas-api-service-availability-dropped agena (oberon integration POST hpe-hcss monitoring/k8s /vmaas/api/v1alpha1/onboarding/edge/workflow us-west-2 critical)                          │
│ [FIRING:1] OOMRestarts gateway (neso production hpe-hcss monitoring/k8s gl-ground-truth-5f786c8f9c-tttck us-west-2 warning)                                                                        │
│ [FIRING:1] gtm-external-req-failed global-trade-manager (oberon integration GetEntityRecord hpe-hcss monitoring/k8s us-west-2 warning global-trade-db)                                             │
│ [FIRING:1] vmaas-api-service-availability-dropped agena (oberon integration POST hpe-hcss monitoring/k8s /vmaas/api/v1alpha1/onboarding/edge/workflow us-west-2 critical)                          │
│ [FIRING:1] vmaas-api-service-availability-dropped agena (oberon integration POST hpe-hcss monitoring/k8s /vmaas/api/v1alpha1/onboarding/edge/workflow us-west-2 critical)                          │
│ [FIRING:1] hpcaas-job-scheduler-external-call-failure hpcaas (DED0000113 oberon integration hpe-hcss monitoring/k8s us-west-2 warning)                                                             │
│ [FIRING:1] KubeContainerWaiting mlops (true oberon agena-rda-delegate integration hpe-hcss monitoring/k8s mlops-dev-1-rda-delegate-dcf8fc8cc-lwx58 us-west-2 warning)                              │
│ [FIRING:1] caas-osb-manager-request-error-percentage cassini (neso production manager.CaaSOsbManagerService hpe-hcss monitoring/k8s us-west-2 low)                                                 │
│ [FIRING:1] vmaas-api-service-availability-dropped agena (oberon integration POST hpe-hcss monitoring/k8s /vmaas/api/v1alpha1/onboarding/edge/workflow us-west-2 critical)                          │
│                                                                              ·                                                                                                                     │
│                                                                              ·                                                                                                                     │
│                                                                              ·                                                                                                                     │
│ [FIRING:3] KubeDeploymentReplicasMismatch pcaas (true despina kube-rbac-proxy-main 192.168.124.37:8443 kube-state-metrics monitoring/k8s us-west-2 warning)                                        │
│ [FIRING:1] gtm-external-req-failed global-trade-manager (oberon integration GetEntityRecord hpe-hcss monitoring/k8s us-west-2 warning global-trade-db)                                             │
│ [FIRING:1] KubeHpaMaxedOut tengine (true neso kube-rbac-proxy-main production tengine 192.168.136.172:8443 kube-state-metrics hpe-hcss monitoring/k8s us-west-2 warning)                           │
│ [FIRING:5] KubeHpaMaxedOut lh-api-orch (true neso kube-rbac-proxy-main production 192.168.136.172:8443 kube-state-metrics hpe-hcss monitoring/k8s us-west-2 warning)                               │
│ [FIRING:1] Consul_DNS_IP_Mismatch Consul DNS IP address mismatched                                                                                                                                 │
│ [FIRING:1] gtm-external-req-failed global-trade-manager (oberon integration GetEntityRecord hpe-hcss monitoring/k8s us-west-2 warning global-trade-db)                                             │
│ [FIRING:2] K8S_Node_Low_Disk_Warning                                                                                                                                                               │
│ [FIRING:1] PDBAllowedDisruptionsZero monitoring                                                                                                                                                    │
│ [FIRING:1] PDBAllowedDisruptionsZero kube-system                                                                                                                                                   │
│ [FIRING:1] CertManagerCertAboutToExpire cert-manager                                                                                                                                               │
│ [FIRING:1] CertManagerCertAboutToExpire resource-manager                                                                                                                                           │
│ [FIRING:1] OOMRestarts gateway (neso production hpe-hcss monitoring/k8s hpetechxperiencepce-rda-delegate-5cf4d5c55-64c25 us-west-2 warning)                                                        │
│ [FIRING:1] gtm-external-req-failed global-trade-manager (oberon integration GetEntityRecord hpe-hcss monitoring/k8s us-west-2 warning global-trade-db)                                             │
│ [FIRING:2] vmaas-api-request-latency-high agena (oberon integration hpe-hcss monitoring/k8s us-west-2 warning)                                                                                     │
│ [FIRING:4] K8s_Pod_CrashLoop_Page istio-system                                                                                                                                                     │
│ [FIRING:1] gtm-external-req-failed global-trade-manager (oberon integration GetEntityRecord hpe-hcss monitoring/k8s us-west-2 warning global-trade-db)                                             │
│ [FIRING:1] gtm-external-req-failed global-trade-manager (oberon integration GetEntityRecord hpe-hcss monitoring/k8s us-west-2 warning global-trade-db)                                             │
│ [FIRING:1] mcaas-frontendHighLatency cassini (reliability neso production GET hpe-hcss monitoring/k8s /mcaas/v1/clusters/:id/policies us-west-2 hpe-hcss/caas warning #sre-pce-blr mcaas-fronten.  │
│ [FIRING:2] KubeContainerWaiting mlops (true oberon agena-rda-delegate integration hpe-hcss monitoring/k8s us-west-2 warning)                                                                       │
│ [FIRING:2] PDBAllowedDisruptionsZero cloudops                                                                                                                                                      │
├────────────────────────────────────────────────────────────────────────────────────────────────────────────────────────────────────────────────────────────────────────────────────────────────────┤
│                                                                                        5363 rows (40 shown)                                                                                        │
└────────────────────────────────────────────────────────────────────────────────────────────────────────────────────────────────────────────────────────────────────────────────────────────────────┘
…
